// This file is generated automatically. All manually added changes will be removed when running the Converter.
// Map 003-10: Guard's House warps
003-10,34,43,0	warp	#003-10_34_43	1,0,003-10,33,58
003-10,34,57,0	warp	#003-10_34_57	1,0,003-10,33,42
003-10,42,80,0	warp	#003-10_42_80	0,0,003-1,114,84
