// This file is generated automatically. All manually added changes will be removed when running the Converter.
// Map 003-2-0: Nard's Room warps
003-2-0,19,27,0	warp	#003-2-0_19_27	0,0,003-2-1,32,28
