// This file is generated automatically. All manually added changes will be removed when running the Converter.
// Map 003-1: Tulimshar mobs
003-1,84,106,33,48	monster	Maggot	1030,42,35000,450000
003-1,81,103,2,3	monster	Croc	1006,1,35000,150000
003-1,67,27,3,4	monster	Four Leaf	1028,1,30000,20000
003-1,72,70,7,4	monster	Piou	1002,2,30000,20000
003-1,85,136,8,11	monster	Duck	1029,2,30000,20000
003-1,109,145,7,4	monster	Giant Maggot	1031,1,30000,20000
003-1,67,121,2,3	monster	Croc	1006,1,35000,150000
003-1,39,101,8,11	monster	Blob	1008,2,35000,150000
003-1,25,73,8,25	monster	Little Blub	1007,6,35000,150000
003-1,37,70,3,13	monster	Toppy Blub	1009,2,35000,150000
003-1,64,58,4,1	monster	Croc	1006,1,35000,150000
003-1,109,24,9,4	monster	Piou	1002,3,30000,20000
003-1,82,116,9,11	monster	Duck	1029,4,30000,20000
003-1,108,43,9,11	monster	Duck	1029,3,30000,20000
003-1,110,42,4,1	monster	Croc	1006,1,35000,150000
