// This file is generated automatically. All manually added changes will be removed when running the Converter.
// Map 003-1: Tulimshar warps
003-1,49,72,0	warp	#003-1_49_72	0,0,003-2,35,40
003-1,46,72,0	warp	#003-1_46_72	0,0,003-2,32,40
003-1,52,72,0	warp	#003-1_52_72	0,0,003-2,38,40
003-1,56,99,0	warp	#003-1_56_99	0,0,003-3,39,40
003-1,54,137,0	warp	#003-1_54_137	0,0,003-4,39,38
003-1,51,120,0	warp	#003-1_51_120	0,0,003-1-2,19,35
003-1,81,120,0	warp	#003-1_81_120	0,0,003-1-2,33,35
003-1,96,143,0	warp	#003-1_96_143	0,0,003-5,38,40
003-1,106,146,0	warp	#003-1_106_146	0,0,003-6,32,38
003-1,112,146,0	warp	#003-1_112_146	0,0,003-6,40,38
003-1,111,136,0	warp	#003-1_111_136	0,0,003-7,39,40
003-1,107,132,0	warp	#003-1_107_132	0,0,003-7,29,31
003-1,110,100,0	warp	#003-1_110_100	0,0,003-8,31,43
003-1,51,65,0	warp	#003-1_51_65	0,0,003-2,42,34
003-1,115,88,0	warp	#003-1_115_88	0,0,003-8,41,28
003-1,60,157,0	warp	#003-1_60_157	4,0,004-1,63,57
003-1,116,120,0	warp	#003-1_116_120	0,0,003-1-2,48,35
003-1,58,54,0	warp	#003-1_58_54	0,0,003-1-3,82,82
003-1,25,45,0	warp	#003-1_25_45	0,0,003-1-3,37,85
003-1,52,35,0	warp	#003-1_52_35	1,0,003-0-1,48,51
