// This file is generated automatically. All manually added changes will be removed when running the Converter.

@include "npc/000-0-0/_import.txt"
@include "npc/000-0/_import.txt"
@include "npc/000-1/_import.txt"
@include "npc/001-1/_import.txt"
@include "npc/001-2/_import.txt"
@include "npc/001-3-1/_import.txt"
@include "npc/001-3/_import.txt"
@include "npc/001-4/_import.txt"
@include "npc/001-5/_import.txt"
@include "npc/001-6/_import.txt"
@include "npc/001-7/_import.txt"
@include "npc/001-8/_import.txt"
@include "npc/001-9/_import.txt"
@include "npc/002-1/_import.txt"
@include "npc/002-2/_import.txt"
@include "npc/002-3/_import.txt"
@include "npc/002-4/_import.txt"
@include "npc/002-5/_import.txt"
@include "npc/003-0-1/_import.txt"
@include "npc/003-0/_import.txt"
@include "npc/003-1-1/_import.txt"
@include "npc/003-1-2/_import.txt"
@include "npc/003-1-3/_import.txt"
@include "npc/003-1/_import.txt"
@include "npc/003-10/_import.txt"
@include "npc/003-13/_import.txt"
@include "npc/003-2/_import.txt"
@include "npc/003-3/_import.txt"
@include "npc/003-4-1/_import.txt"
@include "npc/003-4/_import.txt"
@include "npc/003-5/_import.txt"
@include "npc/003-6/_import.txt"
@include "npc/003-7/_import.txt"
@include "npc/003-8/_import.txt"
@include "npc/004-1/_import.txt"
@include "npc/004-2-1/_import.txt"
@include "npc/004-2/_import.txt"
@include "npc/005-1/_import.txt"
@include "npc/005-2-1/_import.txt"
@include "npc/005-2/_import.txt"
@include "npc/005-3/_import.txt"
@include "npc/005-4/_import.txt"
@include "npc/005-5/_import.txt"
@include "npc/005-6/_import.txt"
@include "npc/005-7/_import.txt"
@include "npc/006-1/_import.txt"
@include "npc/007-1/_import.txt"
@include "npc/008-0/_import.txt"
@include "npc/008-1/_import.txt"
@include "npc/008-2/_import.txt"
@include "npc/009-1/_import.txt"
@include "npc/009-2/_import.txt"
@include "npc/009-3/_import.txt"
@include "npc/009-4/_import.txt"
@include "npc/009-5/_import.txt"
@include "npc/010-1-1/_import.txt"
@include "npc/010-1/_import.txt"
@include "npc/010-2/_import.txt"
@include "npc/011-1/_import.txt"
@include "npc/011-2/_import.txt"
@include "npc/012-1/_import.txt"
@include "npc/012-2/_import.txt"
@include "npc/012-3/_import.txt"
@include "npc/012-4/_import.txt"
@include "npc/012-5/_import.txt"
@include "npc/012-6/_import.txt"
@include "npc/012-7/_import.txt"
@include "npc/014-1/_import.txt"
@include "npc/014-2/_import.txt"
@include "npc/014-3/_import.txt"
@include "npc/014-4/_import.txt"
@include "npc/014-5/_import.txt"
@include "npc/015-1/_import.txt"
@include "npc/015-2/_import.txt"
@include "npc/015-3/_import.txt"
@include "npc/015-4/_import.txt"
@include "npc/015-5/_import.txt"
@include "npc/015-6/_import.txt"
@include "npc/015-7/_import.txt"
@include "npc/016-1/_import.txt"
@include "npc/016-6/_import.txt"
@include "npc/016-7/_import.txt"
@include "npc/017-1/_import.txt"
@include "npc/017-2-1/_import.txt"
@include "npc/017-2/_import.txt"
@include "npc/017-3/_import.txt"
@include "npc/017-4/_import.txt"
@include "npc/017-5/_import.txt"
@include "npc/017-6/_import.txt"
@include "npc/018-1-1/_import.txt"
@include "npc/018-1/_import.txt"
@include "npc/018-2-1/_import.txt"
@include "npc/018-2/_import.txt"
@include "npc/018-3-1/_import.txt"
@include "npc/018-3/_import.txt"
@include "npc/018-4-1/_import.txt"
@include "npc/018-4-2/_import.txt"
@include "npc/018-4/_import.txt"
@include "npc/018-5/_import.txt"
@include "npc/019-1-1/_import.txt"
@include "npc/019-1/_import.txt"
@include "npc/boss/_import.txt"
@include "npc/botcheck/_import.txt"
@include "npc/sec_pri/_import.txt"
@include "npc/soren-2/_import.txt"
@include "npc/soren/_import.txt"
@include "npc/test/_import.txt"
@include "npc/testbg/_import.txt"
